0,0
7.3302e-07,0
1.466e-06,0
2.1991e-06,0
2.5656e-06,0
2.9321e-06,3.615e-06
3.0542e-06,3.615e-06
3.5429e-06,8.4351e-06
3.7873e-06,8.4351e-06
7.941e-06,4.9405e-05
8.3075e-06,4.9405e-05
2.0158e-05,0.00016629
2.0891e-05,0.00016629
3.8728e-05,0.00034222
3.885e-05,0.00034222
8.1976e-05,0.00076759
8.2464e-05,0.0007688
0.0001543,0.0014773
0.00015467,0.0014785
0.00030237,0.0029354
0.00030322,0.0029402
0.00049344,0.0048164
0.00049857,0.0048574
0.00077297,0.0075638
0.0007792,0.0076169
0.0011732,0.011503
0.0011827,0.011592
0.0017094,0.016787
0.0017283,0.016965
0.0025847,0.025411
0.0026357,0.025909
0.0037036,0.036439
0.0038315,0.037691
0.0050996,0.05019
0.0052981,0.052146
0.006733,0.066286
0.0070802,0.069702
0.0087152,0.085799
0.0092223,0.0908
0.010958,0.10785
0.011615,0.11432
0.013498,0.13278
0.014387,0.14153
0.01646,0.16174
0.0175,0.17196
0.019744,0.19369
0.021109,0.20711
0.023467,0.22973
0.025201,0.2467
0.027572,0.26909
0.029582,0.28877
0.03182,0.30947
0.034018,0.33089
0.036279,0.35131
0.038631,0.374
0.040828,0.39315
0.043351,0.41709
0.045627,0.4363
0.048212,0.4603
0.050517,0.47874
0.053206,0.50289
0.055497,0.51996
0.058603,0.5469
0.061069,0.56443
0.064749,0.59479
0.067332,0.61171
0.071602,0.64428
0.074261,0.65955
0.07933,0.69485
0.081994,0.70797
0.088269,0.74644
0.09126,0.75863
0.099685,0.79983
0.1033,0.81016
0.11621,0.85205
0.1217,0.85984
0.14672,0.89804
0.15744,0.90299
0.21608,0.93739
0.23466,0.9401
0.36152,0.96475
0.37808,0.96578
0.56013,0.97997
0.56754,0.98038
0.78177,0.98787
0.78379,0.988
0.93357,0.99304
1,1
