0,0
1.2217e-07,0
2.4434e-07,0
4.8868e-07,0
6.1085e-07,0
7.3302e-07,0
8.5519e-07,0
9.7736e-07,0
1.0995e-06,0
1.2217e-06,0
1.466e-06,0
1.5882e-06,0
1.7104e-06,0
1.8325e-06,0
1.9547e-06,0
2.0769e-06,0
2.1991e-06,1.205e-06
2.5656e-06,2.41e-06
2.6877e-06,2.41e-06
2.8099e-06,3.615e-06
3.0542e-06,6.025e-06
3.1764e-06,6.025e-06
3.2986e-06,6.025e-06
3.6651e-06,6.025e-06
3.7873e-06,7.23e-06
3.9094e-06,7.23e-06
4.0316e-06,7.23e-06
4.1538e-06,7.23e-06
4.2759e-06,8.4351e-06
4.6424e-06,8.4351e-06
4.8868e-06,9.6401e-06
5.009e-06,1.0845e-05
5.1311e-06,1.0845e-05
5.2533e-06,1.205e-05
5.4976e-06,1.205e-05
5.6198e-06,1.205e-05
5.9863e-06,1.3255e-05
6.2306e-06,1.3255e-05
6.5972e-06,1.446e-05
7.208e-06,1.8075e-05
7.6967e-06,1.928e-05
8.0632e-06,2.0485e-05
8.4297e-06,2.2895e-05
8.674e-06,2.41e-05
9.5292e-06,2.5305e-05
9.6514e-06,2.5305e-05
1.0262e-05,2.651e-05
1.1362e-05,3.374e-05
1.1728e-05,3.4945e-05
1.2217e-05,3.615e-05
1.3561e-05,4.097e-05
1.4905e-05,4.579e-05
1.6249e-05,4.6995e-05
1.6859e-05,4.82e-05
1.7837e-05,4.9405e-05
1.8936e-05,5.061e-05
2.028e-05,5.302e-05
2.0769e-05,5.4225e-05
2.2601e-05,5.543e-05
2.3945e-05,5.784e-05
2.5045e-05,5.9045e-05
2.7855e-05,6.507e-05
2.9199e-05,6.8685e-05
3.1031e-05,7.471e-05
3.3474e-05,7.8326e-05
3.5674e-05,8.1941e-05
3.7873e-05,8.1941e-05
3.9827e-05,8.3146e-05
4.1415e-05,8.5556e-05
4.3492e-05,8.7966e-05
4.4714e-05,8.9171e-05
4.7768e-05,9.6401e-05
5.0456e-05,9.7606e-05
5.3632e-05,0.00010363
5.6809e-05,0.00010725
6.0596e-05,0.00011207
6.3895e-05,0.00011327
6.6949e-05,0.0001193
7.0858e-05,0.00012412
7.2935e-05,0.00013014
7.489e-05,0.00013255
7.7944e-05,0.00013737
8.1243e-05,0.00014219
8.4419e-05,0.00015063
8.7473e-05,0.00015906
9.0528e-05,0.00016027
9.4926e-05,0.00016629
9.7491e-05,0.00017111
0.0001014,0.00018075
0.00010482,0.00018919
0.00010959,0.00019039
0.00011508,0.00020124
0.00011973,0.00020606
0.00012351,0.00020847
0.00012803,0.00021449
0.00013194,0.00022052
0.00013671,0.00022654
0.00014159,0.00023377
0.0001466,0.0002398
0.00015161,0.00024462
0.00015674,0.00024823
0.00016224,0.00025185
0.00016664,0.00025667
0.00017336,0.00026631
0.00017849,0.00026751
0.00018411,0.00027233
0.00019071,0.00028077
0.0001984,0.00028318
0.00020549,0.000288
0.00021172,0.00029402
0.00021881,0.00030728
0.0002276,0.0003133
0.00023457,0.00031812
0.00024177,0.00032415
0.00024959,0.0003374
0.00025741,0.00033981
0.00026706,0.00035307
0.0002761,0.0003603
0.00028514,0.00036632
0.00029357,0.00036873
0.00030469,0.0003844
0.00031422,0.00039163
0.00032509,0.00039886
0.00033487,0.00040609
0.00034598,0.00041814
0.00035441,0.00042898
0.00036541,0.00043983
0.00037689,0.00044826
0.00038496,0.0004567
0.00039461,0.00046634
0.0004067,0.000482
0.00041855,0.00049646
0.00043114,0.00051213
0.00044433,0.00053141
0.00045728,0.00054707
0.00047072,0.00055792
0.00048526,0.00057599
0.0004998,0.00059648
0.00051397,0.00061455
0.00052753,0.0006254
0.00054158,0.0006507
0.00055563,0.00067239
0.00056919,0.00068806
0.0005847,0.00071939
0.00060071,0.00074831
0.00061659,0.00077241
0.00063614,0.00080374
0.00065495,0.00084351
0.00067047,0.00087122
0.00068745,0.00090496
0.00070602,0.00094232
0.00072214,0.00097365
0.00074218,0.0010134
0.00076564,0.0010604
0.00078641,0.0011026
0.00080693,0.0011556
0.00083088,0.0012086
0.00085555,0.0012773
0.00087913,0.0013412
0.0009065,0.0014159
0.00093044,0.0014797
0.00095573,0.0015388
0.00098408,0.0016207
0.0010116,0.0017123
0.0010421,0.0017979
0.0010724,0.0019111
0.0011028,0.0020124
0.0011356,0.0021353
0.0011725,0.0022823
0.0012054,0.0024148
0.0012387,0.0025498
0.0012756,0.0027028
0.001313,0.0028715
0.0013541,0.0030595
0.0013933,0.0032403
0.0014351,0.003462
0.0014774,0.0036789
0.0015199,0.0039139
0.0015638,0.0041537
0.0016135,0.0044272
0.0016564,0.0046441
0.0017084,0.0049441
0.0017603,0.0052623
0.0018146,0.0055888
0.0018666,0.005913
0.0019272,0.0062817
0.0019927,0.0066986
0.0020544,0.0071047
0.0021156,0.0075132
0.0021794,0.0079374
0.0022494,0.0084013
0.0023179,0.0088845
0.0023882,0.0093701
0.0024623,0.0099064
0.0025389,0.010463
0.0026172,0.011072
0.0027026,0.011689
0.0027956,0.012384
0.0028905,0.013106
0.0029813,0.013801
0.0030787,0.014567
0.003178,0.015342
0.0032834,0.016169
0.0033931,0.017061
0.0035065,0.017967
0.0036179,0.018868
0.0037372,0.019825
0.0038625,0.020872
0.0039903,0.02193
0.0041259,0.023057
0.0042563,0.024127
0.0043988,0.025326
0.0045442,0.026529
0.0046984,0.027832
0.0048485,0.02912
0.0050037,0.030452
0.0051586,0.031807
0.0053332,0.033326
0.0055096,0.034868
0.0056899,0.036425
0.0058667,0.037971
0.0060431,0.039524
0.0062446,0.041308
0.0064337,0.042985
0.006636,0.044779
0.0068406,0.046595
0.0070583,0.048556
0.0072698,0.050455
0.0074991,0.052494
0.0077298,0.05457
0.0079658,0.056717
0.0082125,0.05895
0.0084555,0.061145
0.0087063,0.063406
0.0089583,0.065695
0.0092217,0.068096
0.0094899,0.070475
0.00977,0.073008
0.010065,0.075687
0.010354,0.078275
0.01065,0.080958
0.010946,0.08367
0.011264,0.086586
0.011591,0.089572
0.011915,0.092546
0.012256,0.095685
0.012599,0.098836
0.012941,0.10197
0.013296,0.10521
0.013649,0.10845
0.014018,0.11184
0.014402,0.11534
0.014782,0.11883
0.015174,0.12241
0.015567,0.12605
0.015961,0.12969
0.016359,0.13332
0.01678,0.13716
0.017207,0.14105
0.017641,0.14502
0.01808,0.14904
0.018522,0.15308
0.018963,0.15712
0.019413,0.1612
0.019871,0.16539
0.020345,0.16969
0.020833,0.17411
0.021312,0.17846
0.021801,0.1829
0.022299,0.18743
0.022807,0.19205
0.02331,0.19662
0.023822,0.20122
0.02435,0.20595
0.024882,0.2107
0.025428,0.21556
0.025984,0.22046
0.026534,0.22535
0.027098,0.23038
0.027672,0.23539
0.028259,0.24051
0.028847,0.24565
0.029439,0.25079
0.030047,0.25607
0.030683,0.26158
0.031313,0.26698
0.031947,0.27238
0.032587,0.27781
0.033233,0.28327
0.033886,0.28876
0.034561,0.2944
0.035243,0.29998
0.035947,0.30573
0.036644,0.31132
0.037379,0.31719
0.038088,0.32282
0.038823,0.32868
0.039577,0.33456
0.040373,0.34071
0.04116,0.34663
0.041944,0.35253
0.042756,0.35854
0.043568,0.36449
0.0444,0.3706
0.045245,0.37659
0.046099,0.38263
0.046993,0.38889
0.047903,0.39505
0.04886,0.40153
0.049828,0.40785
0.050799,0.41416
0.051776,0.42039
0.052794,0.42672
0.053842,0.43312
0.054918,0.43955
0.055998,0.44578
0.057106,0.45215
0.058238,0.45844
0.059427,0.46495
0.060633,0.47139
0.0619,0.47796
0.063184,0.48441
0.064495,0.49088
0.065836,0.49723
0.067233,0.50375
0.068682,0.51024
0.070158,0.51661
0.071677,0.52292
0.073272,0.52949
0.07491,0.53599
0.076583,0.54247
0.07832,0.54887
0.080118,0.55526
0.082007,0.56183
0.083908,0.56816
0.085919,0.57471
0.087984,0.5811
0.090134,0.58752
0.092345,0.59393
0.094596,0.60018
0.096953,0.60635
0.099448,0.61282
0.102,0.61886
0.10466,0.62508
0.10744,0.6314
0.11029,0.6375
0.11321,0.64359
0.11627,0.64968
0.11943,0.65577
0.12272,0.66176
0.1261,0.66769
0.12963,0.6736
0.13331,0.67945
0.13712,0.6854
0.14104,0.69113
0.14511,0.69673
0.14931,0.70253
0.15365,0.70812
0.1581,0.71372
0.16271,0.71926
0.16751,0.72467
0.17245,0.73011
0.17754,0.73562
0.18279,0.74102
0.18817,0.74617
0.19377,0.75136
0.19949,0.75639
0.20537,0.76136
0.21146,0.76622
0.21765,0.77103
0.22406,0.77582
0.2306,0.7805
0.23735,0.78499
0.24435,0.78947
0.25165,0.79385
0.25932,0.79835
0.26744,0.80274
0.27604,0.80687
0.28544,0.81106
0.2957,0.81506
0.3069,0.81907
0.31917,0.82303
0.33246,0.82685
0.34657,0.8306
0.36133,0.8343
0.37647,0.83793
0.3916,0.84163
0.40639,0.84512
0.42079,0.84854
0.43471,0.85196
0.44815,0.85523
0.46128,0.85846
0.47424,0.86163
0.48703,0.86466
0.49994,0.86772
0.51287,0.87068
0.52586,0.87358
0.53902,0.87649
0.55221,0.87928
0.56549,0.88192
0.57861,0.88449
0.59166,0.88695
0.60443,0.88945
0.61695,0.892
0.62907,0.89452
0.64068,0.89691
0.65181,0.89922
0.66254,0.90147
0.67274,0.90366
0.68264,0.90585
0.6922,0.90794
0.70146,0.90999
0.71052,0.91199
0.71934,0.91407
0.72801,0.916
0.73638,0.91786
0.74452,0.91969
0.75248,0.92151
0.76022,0.92327
0.76766,0.92493
0.77494,0.92662
0.78201,0.92822
0.78884,0.92984
0.7954,0.93133
0.80184,0.9329
0.80807,0.9345
0.81412,0.936
0.81996,0.9374
0.82563,0.93873
0.83115,0.93999
0.83643,0.94125
0.84154,0.9425
0.84655,0.9438
0.85139,0.94504
0.85608,0.94624
0.86063,0.94739
0.86506,0.94853
0.86936,0.94965
0.8735,0.95081
0.87751,0.9519
0.88142,0.95299
0.88521,0.95402
0.88883,0.95509
0.89235,0.95608
0.89579,0.95703
0.8991,0.95802
0.90228,0.95896
0.90538,0.95988
0.90837,0.96084
0.91128,0.96174
0.91405,0.9626
0.91675,0.96339
0.91935,0.96423
0.92188,0.96505
0.92432,0.96583
0.92666,0.96655
0.92893,0.96727
0.93112,0.96795
0.93323,0.96864
0.93527,0.96935
0.93724,0.97003
0.93915,0.97068
0.94101,0.97138
0.9428,0.97196
0.94454,0.97259
0.94622,0.97321
0.94783,0.97382
0.94939,0.97439
0.95091,0.97498
0.95237,0.97552
0.95376,0.97605
0.95512,0.97659
0.95644,0.97707
0.95769,0.97758
0.95893,0.97805
0.96011,0.97853
0.96127,0.97903
0.96238,0.97954
0.96347,0.98002
0.96451,0.9805
0.96552,0.98092
0.9665,0.98132
0.96745,0.98174
0.96836,0.98213
0.96923,0.98253
0.97007,0.98291
0.97091,0.98329
0.97171,0.98367
0.9725,0.98401
0.97324,0.98436
0.97398,0.98472
0.97468,0.98506
0.97539,0.98541
0.97605,0.98573
0.9767,0.98607
0.97735,0.98642
0.97796,0.98671
0.97856,0.98705
0.97913,0.98732
0.97968,0.98758
0.98023,0.98787
0.98077,0.98815
0.9813,0.98844
0.98179,0.98872
0.98227,0.98897
0.98273,0.98923
0.98318,0.98947
0.98362,0.98969
0.98404,0.98993
0.98445,0.99018
0.98487,0.99044
0.98526,0.99065
0.98564,0.99089
0.98602,0.99111
0.98638,0.9913
0.98673,0.99151
0.98708,0.99172
0.98741,0.99191
0.98773,0.99211
0.98805,0.99228
0.98834,0.99246
0.98863,0.99262
0.98892,0.99279
0.9892,0.99298
0.98947,0.99314
0.98973,0.99331
0.99,0.99349
0.99025,0.99367
0.99048,0.99381
0.99072,0.99395
0.99095,0.99411
0.99118,0.99426
0.9914,0.99439
0.9916,0.99452
0.99181,0.99465
0.992,0.99477
0.99219,0.99491
0.99238,0.99504
0.99256,0.99517
0.99273,0.9953
0.99291,0.99541
0.99307,0.99553
0.99323,0.99563
0.99339,0.99574
0.99354,0.99584
0.99368,0.99595
0.99383,0.99606
0.99397,0.99617
0.99411,0.99626
0.99424,0.99636
0.99437,0.99643
0.9945,0.99652
0.99462,0.9966
0.99474,0.9967
0.99485,0.99678
0.99496,0.99687
0.99507,0.99696
0.99517,0.99704
0.99528,0.99713
0.99538,0.99721
0.99548,0.99728
0.99558,0.99733
0.99566,0.9974
0.99575,0.99747
0.99583,0.99754
0.99592,0.9976
0.996,0.99768
0.99608,0.99773
0.99616,0.99778
0.99624,0.99784
0.99631,0.99791
0.99638,0.99795
0.99645,0.99801
0.99652,0.99807
0.99659,0.99813
0.99665,0.99818
0.99671,0.99824
0.99678,0.99829
0.99683,0.99833
0.99689,0.99838
0.99695,0.99842
0.99701,0.99847
0.99706,0.99851
0.99711,0.99856
0.99717,0.9986
0.99722,0.99863
0.99726,0.99867
0.9973,0.9987
0.99735,0.99874
0.99739,0.99877
0.99743,0.9988
0.99747,0.99884
0.9975,0.99887
0.99754,0.9989
0.99758,0.99893
0.99762,0.99895
0.99766,0.99899
0.99769,0.99901
0.99773,0.99904
0.99776,0.99907
0.9978,0.9991
0.99783,0.99914
0.99786,0.99916
0.99789,0.99919
0.99792,0.99921
0.99795,0.99924
0.99798,0.99927
0.99801,0.9993
0.99804,0.99931
0.99807,0.99933
0.99809,0.99935
0.99812,0.99937
0.99814,0.99939
0.99817,0.99941
0.99819,0.99943
0.99822,0.99944
0.99824,0.99946
0.99827,0.99948
0.99829,0.99949
0.99831,0.99951
0.99834,0.99952
0.99836,0.99954
0.99838,0.99955
0.99841,0.99957
0.99843,0.99959
0.99845,0.9996
0.99847,0.9996
0.99849,0.99961
0.99851,0.99962
0.99853,0.99963
0.99855,0.99964
0.99857,0.99966
0.99859,0.99967
0.99861,0.99969
0.99863,0.99969
0.99865,0.9997
0.99867,0.99971
0.99868,0.99972
0.9987,0.99973
0.99872,0.99974
0.99874,0.99974
0.99876,0.99975
0.99878,0.99976
0.9988,0.99977
0.99882,0.99977
0.99883,0.99978
0.99885,0.99978
0.99887,0.99979
0.99889,0.9998
0.9989,0.9998
0.99892,0.9998
0.99894,0.99981
0.99895,0.99982
0.99897,0.99982
0.99899,0.99983
0.999,0.99984
0.99902,0.99984
0.99904,0.99984
0.99905,0.99985
0.99907,0.99985
0.99909,0.99986
0.9991,0.99986
0.99912,0.99987
0.99913,0.99987
0.99915,0.99987
0.99916,0.99987
0.99918,0.99987
0.99919,0.99987
0.9992,0.99988
0.99922,0.99988
0.99923,0.99989
0.99925,0.99989
0.99926,0.99989
0.99928,0.9999
0.99929,0.9999
0.9993,0.9999
0.99932,0.9999
0.99933,0.9999
0.99934,0.99991
0.99936,0.99991
0.99937,0.99991
0.99938,0.99991
0.99939,0.99991
0.9994,0.99992
0.99942,0.99992
0.99943,0.99992
0.99944,0.99992
0.99945,0.99992
0.99946,0.99993
0.99947,0.99993
0.99948,0.99993
0.99949,0.99993
0.9995,0.99993
0.99951,0.99994
0.99952,0.99994
0.99953,0.99994
0.99954,0.99994
0.99955,0.99994
0.99956,0.99994
0.99957,0.99995
0.99958,0.99995
0.99958,0.99995
0.99959,0.99995
0.9996,0.99996
0.99961,0.99996
0.99962,0.99996
0.99962,0.99996
0.99963,0.99996
0.99964,0.99996
0.99965,0.99996
0.99965,0.99996
0.99966,0.99996
0.99967,0.99996
0.99967,0.99997
0.99968,0.99997
0.99968,0.99997
0.99969,0.99997
0.9997,0.99997
0.9997,0.99997
0.99971,0.99998
0.99972,0.99998
0.99972,0.99998
0.99973,0.99998
0.99973,0.99998
0.99974,0.99998
0.99974,0.99998
0.99975,0.99998
0.99975,0.99998
0.99976,0.99998
0.99976,0.99998
0.99977,0.99998
0.99977,0.99998
0.99978,0.99998
0.99978,0.99998
0.99979,0.99998
0.99979,0.99998
0.9998,0.99998
0.9998,0.99999
0.99981,0.99999
0.99981,0.99999
0.99982,0.99999
0.99982,0.99999
0.99983,0.99999
0.99983,0.99999
0.99983,0.99999
0.99984,0.99999
0.99984,0.99999
0.99985,0.99999
0.99985,0.99999
0.99986,0.99999
0.99986,0.99999
0.99986,0.99999
0.99987,0.99999
0.99987,0.99999
0.99987,0.99999
0.99988,0.99999
0.99988,0.99999
0.99988,0.99999
0.99988,0.99999
0.99989,0.99999
0.99989,0.99999
0.99989,0.99999
0.9999,0.99999
0.9999,0.99999
0.9999,0.99999
0.9999,0.99999
0.99991,0.99999
0.99991,1
0.99991,1
0.99991,1
0.99991,1
0.99992,1
0.99992,1
0.99992,1
0.99992,1
0.99993,1
0.99993,1
0.99993,1
0.99993,1
0.99993,1
0.99994,1
0.99994,1
0.99994,1
0.99994,1
0.99994,1
0.99995,1
0.99995,1
0.99995,1
0.99995,1
0.99995,1
0.99995,1
0.99996,1
0.99996,1
0.99996,1
0.99996,1
0.99996,1
0.99996,1
0.99996,1
0.99997,1
0.99997,1
0.99997,1
0.99997,1
0.99997,1
0.99997,1
0.99997,1
0.99997,1
0.99997,1
0.99998,1
0.99998,1
0.99998,1
0.99998,1
0.99998,1
0.99998,1
0.99998,1
0.99998,1
0.99998,1
0.99998,1
0.99998,1
0.99999,1
0.99999,1
0.99999,1
0.99999,1
0.99999,1
0.99999,1
0.99999,1
0.99999,1
0.99999,1
0.99999,1
0.99999,1
0.99999,1
0.99999,1
0.99999,1
0.99999,1
0.99999,1
0.99999,1
1,1
1,1
1,1
1,1
1,1
1,1
1,1
1,1
1,1
1,1
1,1
1,1
1,1
1,1
1,1
1,1
1,1
1,1
1,1
1,1
1,1
1,1
1,1
